Data Manipulation with dplyr
…
counties %>%
  # Select the columns
  select(state,county,population,poverty)

## # A tibble: 3,138 × 4
##    state   county   population poverty
##    <chr>   <chr>         <dbl>   <dbl>
##  1 Alabama Autauga       55221    12.9
##  2 Alabama Baldwin      195121    13.4
##  3 Alabama Barbour       26932    26.7
##  4 Alabama Bibb          22604    16.8
##  5 Alabama Blount        57710    16.7
##  6 Alabama Bullock       10678    24.6
##  7 Alabama Butler        20354    25.4
##  8 Alabama Calhoun      116648    20.5
##  9 Alabama Chambers      34079    21.6
## 10 Alabama Cherokee      26008    19.2
## # … with 3,128 more rows

1.2 The filter and
arrange verbs

counties_selected <- counties %>%
  select(state,county,population,unemployment,metro)

counties_selected

## # A tibble: 3,138 × 5
##    state   county   population unemployment metro   
##    <chr>   <chr>         <dbl>        <dbl> <chr>   
##  1 Alabama Autauga       55221          7.6 Metro   
##  2 Alabama Baldwin      195121          7.5 Metro   
##  3 Alabama Barbour       26932         17.6 Nonmetro
##  4 Alabama Bibb          22604          8.3 Metro   
##  5 Alabama Blount        57710          7.7 Metro   
##  6 Alabama Bullock       10678         18   Nonmetro
##  7 Alabama Butler        20354         10.9 Nonmetro
##  8 Alabama Calhoun      116648         12.3 Metro   
##  9 Alabama Chambers      34079          8.9 Nonmetro
## 10 Alabama Cherokee      26008          7.9 Nonmetro
## # … with 3,128 more rows

counties_selected %>%
  arrange(population)

## # A tibble: 3,138 × 5
##    state      county    population unemployment metro   
##    <chr>      <chr>          <dbl>        <dbl> <chr>   
##  1 Hawaii     Kalawao           85          0   Metro   
##  2 Texas      King             267          5.1 Nonmetro
##  3 Nebraska   McPherson        433          0.9 Nonmetro
##  4 Montana    Petroleum        443          6.6 Nonmetro
##  5 Nebraska   Arthur           448          4   Nonmetro
##  6 Nebraska   Loup             548          0.7 Nonmetro
##  7 Nebraska   Blaine           551          0.7 Nonmetro
##  8 New Mexico Harding          565          6   Nonmetro
##  9 Texas      Kenedy           565          0   Nonmetro
## 10 Colorado   San Juan         606         13.8 Nonmetro
## # … with 3,128 more rows

counties_selected %>%
  arrange(desc(population))

## # A tibble: 3,138 × 5
##    state      county      population unemployment metro
##    <chr>      <chr>            <dbl>        <dbl> <chr>
##  1 California Los Angeles   10038388         10   Metro
##  2 Illinois   Cook           5236393         10.7 Metro
##  3 Texas      Harris         4356362          7.5 Metro
##  4 Arizona    Maricopa       4018143          7.7 Metro
##  5 California San Diego      3223096          8.7 Metro
##  6 California Orange         3116069          7.6 Metro
##  7 Florida    Miami-Dade     2639042         10   Metro
##  8 New York   Kings          2595259         10   Metro
##  9 Texas      Dallas         2485003          7.6 Metro
## 10 New York   Queens         2301139          8.6 Metro
## # … with 3,128 more rows

counties_selected %>%
  arrange(desc(population)) %>%
  filter(state == "New York")

## # A tibble: 62 × 5
##    state    county      population unemployment metro
##    <chr>    <chr>            <dbl>        <dbl> <chr>
##  1 New York Kings          2595259         10   Metro
##  2 New York Queens         2301139          8.6 Metro
##  3 New York New York       1629507          7.5 Metro
##  4 New York Suffolk        1501373          6.4 Metro
##  5 New York Bronx          1428357         14   Metro
##  6 New York Nassau         1354612          6.4 Metro
##  7 New York Westchester     967315          7.6 Metro
##  8 New York Erie            921584          7   Metro
##  9 New York Monroe          749356          7.7 Metro
## 10 New York Richmond        472481          6.9 Metro
## # … with 52 more rows

counties_selected %>%
  arrange(desc(population)) %>%
  filter(unemployment<6) #6%

## # A tibble: 949 × 5
##    state    county       population unemployment metro
##    <chr>    <chr>             <dbl>        <dbl> <chr>
##  1 Virginia Fairfax         1128722          4.9 Metro
##  2 Utah     Salt Lake       1078958          5.8 Metro
##  3 Hawaii   Honolulu         984178          5.6 Metro
##  4 Texas    Collin           862215          4.9 Metro
##  5 Texas    Denton           731851          5.7 Metro
##  6 Texas    Fort Bend        658331          5.1 Metro
##  7 Kansas   Johnson          566814          4.5 Metro
##  8 Maryland Anne Arundel     555280          5.9 Metro
##  9 Colorado Jefferson        552344          5.9 Metro
## 10 Utah     Utah             551957          5.5 Metro
## # … with 939 more rows
…
1.3 The mutate()
verb

counties_selected %>%
  mutate(unemployed_population = population*unemployment/100) %>%
  arrange(desc(unemployed_population))

## # A tibble: 3,138 × 6
##    state      county         population unemployment metro unemployed_population
##    <chr>      <chr>               <dbl>        <dbl> <chr>                 <dbl>
##  1 California Los Angeles      10038388         10   Metro              1003839.
##  2 Illinois   Cook              5236393         10.7 Metro               560294.
##  3 Texas      Harris            4356362          7.5 Metro               326727.
##  4 Arizona    Maricopa          4018143          7.7 Metro               309397.
##  5 California Riverside         2298032         12.9 Metro               296446.
##  6 California San Diego         3223096          8.7 Metro               280409.
##  7 Michigan   Wayne             1778969         14.9 Metro               265066.
##  8 California San Bernardino    2094769         12.6 Metro               263941.
##  9 Florida    Miami-Dade        2639042         10   Metro               263904.
## 10 New York   Kings             2595259         10   Metro               259526.
## # … with 3,128 more rows
…
2.1 The count verb

counties %>%
  count()

## # A tibble: 1 × 1
##       n
##   <int>
## 1  3138

counties %>%
  count(state)

## # A tibble: 50 × 2
##    state           n
##    <chr>       <int>
##  1 Alabama        67
##  2 Alaska         28
##  3 Arizona        15
##  4 Arkansas       75
##  5 California     58
##  6 Colorado       64
##  7 Connecticut     8
##  8 Delaware        3
##  9 Florida        67
## 10 Georgia       159
## # … with 40 more rows

counties %>%
  count(state, sort = TRUE)

## # A tibble: 50 × 2
##    state              n
##    <chr>          <int>
##  1 Texas            253
##  2 Georgia          159
##  3 Virginia         133
##  4 Kentucky         120
##  5 Missouri         115
##  6 Kansas           105
##  7 Illinois         102
##  8 North Carolina   100
##  9 Iowa              99
## 10 Tennessee         95
## # … with 40 more rows

counties %>%
  count(state, wt = population, sort = TRUE)

## # A tibble: 50 × 2
##    state                 n
##    <chr>             <dbl>
##  1 California     38421464
##  2 Texas          26538497
##  3 New York       19673174
##  4 Florida        19645772
##  5 Illinois       12873761
##  6 Pennsylvania   12779559
##  7 Ohio           11575977
##  8 Georgia        10006693
##  9 Michigan        9900571
## 10 North Carolina  9845333
## # … with 40 more rows
…
counties %>%
  summarize(total_pop = sum(population))

## # A tibble: 1 × 1
##   total_pop
##       <dbl>
## 1 315845353

counties %>%
  group_by(state) %>%
  summarize(total_pop = sum(population),
            average_enemployment = mean(unemployment)) %>%
  arrange(desc(average_enemployment))

## # A tibble: 50 × 3
##    state          total_pop average_enemployment
##    <chr>              <dbl>                <dbl>
##  1 Mississippi      2988081                12.0 
##  2 Arizona          6641928                12.0 
##  3 South Carolina   4777576                11.3 
##  4 Alabama          4830620                11.3 
##  5 California      38421464                10.8 
##  6 Nevada           2798636                10.5 
##  7 North Carolina   9845333                10.5 
##  8 Florida         19645772                10.4 
##  9 Georgia         10006693                 9.97
## 10 Michigan         9900571                 9.96
## # … with 40 more rows

counties %>%
  group_by(state, metro) %>%
  summarize(total_pop = sum(population),
            average_enemployment = mean(unemployment)) %>%
  arrange(desc(average_enemployment))

## `summarise()` has grouped output by 'state'. You can override using the
## `.groups` argument.

## # A tibble: 97 × 4
## # Groups:   state [50]
##    state          metro    total_pop average_enemployment
##    <chr>          <chr>        <dbl>                <dbl>
##  1 Arizona        Nonmetro    346783                 13.9
##  2 South Carolina Nonmetro    753821                 13.0
##  3 Alabama        Nonmetro   1159243                 12.9
##  4 Mississippi    Nonmetro   1628768                 12.3
##  5 Florida        Nonmetro    703951                 11.5
##  6 California     Nonmetro    834035                 11.5
##  7 North Carolina Nonmetro   2205341                 11.0
##  8 Mississippi    Metro      1359313                 10.9
##  9 Louisiana      Nonmetro    768636                 10.5
## 10 Nevada         Nonmetro    269634                 10.5
## # … with 87 more rows

counties %>%
  group_by(state, metro) %>%
  summarize(total_pop = sum(population),
            average_enemployment = mean(unemployment)) %>%
  arrange(desc(average_enemployment)) %>%
  ungroup()

## `summarise()` has grouped output by 'state'. You can override using the
## `.groups` argument.

## # A tibble: 97 × 4
##    state          metro    total_pop average_enemployment
##    <chr>          <chr>        <dbl>                <dbl>
##  1 Arizona        Nonmetro    346783                 13.9
##  2 South Carolina Nonmetro    753821                 13.0
##  3 Alabama        Nonmetro   1159243                 12.9
##  4 Mississippi    Nonmetro   1628768                 12.3
##  5 Florida        Nonmetro    703951                 11.5
##  6 California     Nonmetro    834035                 11.5
##  7 North Carolina Nonmetro   2205341                 11.0
##  8 Mississippi    Metro      1359313                 10.9
##  9 Louisiana      Nonmetro    768636                 10.5
## 10 Nevada         Nonmetro    269634                 10.5
## # … with 87 more rows

2.3 The slice_min and
slice_max verbs

counties_selected %>%
  group_by(state) %>%
  slice_max(population, n = 1)

## # A tibble: 50 × 5
## # Groups:   state [50]
##    state       county                 population unemployment metro
##    <chr>       <chr>                       <dbl>        <dbl> <chr>
##  1 Alabama     Jefferson                  659026          9.1 Metro
##  2 Alaska      Anchorage Municipality     299107          6.7 Metro
##  3 Arizona     Maricopa                  4018143          7.7 Metro
##  4 Arkansas    Pulaski                    390463          7.5 Metro
##  5 California  Los Angeles              10038388         10   Metro
##  6 Colorado    El Paso                    655024          8.4 Metro
##  7 Connecticut Fairfield                  939983          9   Metro
##  8 Delaware    New Castle                 549643          7.4 Metro
##  9 Florida     Miami-Dade                2639042         10   Metro
## 10 Georgia     Fulton                     983903          9.9 Metro
## # … with 40 more rows

counties_selected %>%
  group_by(state) %>%
  slice_min(unemployment, n = 1)

## # A tibble: 51 × 5
## # Groups:   state [50]
##    state       county                     population unemployment metro   
##    <chr>       <chr>                           <dbl>        <dbl> <chr>   
##  1 Alabama     Shelby                         203530          5.5 Metro   
##  2 Alaska      Aleutians West Census Area       5684          2.1 Nonmetro
##  3 Arizona     Maricopa                      4018143          7.7 Metro   
##  4 Arkansas    Benton                         238198          4.2 Metro   
##  5 California  Marin                          258349          5.7 Metro   
##  6 Colorado    Jackson                          1335          1.5 Nonmetro
##  7 Connecticut Middlesex                      165165          6   Metro   
##  8 Delaware    New Castle                     549643          7.4 Metro   
##  9 Florida     Monroe                          75901          6   Nonmetro
## 10 Georgia     Bacon                           11222          4.4 Nonmetro
## # … with 41 more rows

counties_selected %>%
  group_by(state) %>%
  slice_max(unemployment, n = 3)

## # A tibble: 153 × 5
## # Groups:   state [50]
##    state    county                    population unemployment metro   
##    <chr>    <chr>                          <dbl>        <dbl> <chr>   
##  1 Alabama  Conecuh                        12865         22.6 Nonmetro
##  2 Alabama  Wilcox                         11235         20.8 Nonmetro
##  3 Alabama  Monroe                         22217         20.7 Nonmetro
##  4 Alaska   Northwest Arctic Borough        7732         21.9 Nonmetro
##  5 Alaska   Yukon-Koyukuk Census Area       5644         18.2 Nonmetro
##  6 Alaska   Bethel Census Area             17776         17.6 Nonmetro
##  7 Arizona  Navajo                        107656         19.8 Nonmetro
##  8 Arizona  Apache                         72124         18.2 Nonmetro
##  9 Arizona  Graham                         37407         14.1 Nonmetro
## 10 Arkansas Phillips                       20391         18.1 Nonmetro
## # … with 143 more rows

counties_selected %>%
  # Find the total population for each combination of state and metro
  group_by(state, metro) %>%
  summarize(total_pop = sum(population))

## `summarise()` has grouped output by 'state'. You can override using the
## `.groups` argument.

## # A tibble: 97 × 3
## # Groups:   state [50]
##    state      metro    total_pop
##    <chr>      <chr>        <dbl>
##  1 Alabama    Metro      3671377
##  2 Alabama    Nonmetro   1159243
##  3 Alaska     Metro       494990
##  4 Alaska     Nonmetro    230471
##  5 Arizona    Metro      6295145
##  6 Arizona    Nonmetro    346783
##  7 Arkansas   Metro      1806867
##  8 Arkansas   Nonmetro   1151341
##  9 California Metro     37587429
## 10 California Nonmetro    834035
## # … with 87 more rows

counties_selected %>%
  # Find the total population for each combination of state and metro
  group_by(state, metro) %>%
  summarize(total_pop = sum(population)) %>%
  # Extract the most populated row for each state
  slice_max(total_pop, n = 1)

## `summarise()` has grouped output by 'state'. You can override using the
## `.groups` argument.

## # A tibble: 50 × 3
## # Groups:   state [50]
##    state       metro total_pop
##    <chr>       <chr>     <dbl>
##  1 Alabama     Metro   3671377
##  2 Alaska      Metro    494990
##  3 Arizona     Metro   6295145
##  4 Arkansas    Metro   1806867
##  5 California  Metro  37587429
##  6 Colorado    Metro   4590896
##  7 Connecticut Metro   3406918
##  8 Delaware    Metro    926454
##  9 Florida     Metro  18941821
## 10 Georgia     Metro   8233886
## # … with 40 more rows

counties_selected %>%
  # Find the total population for each combination of state and metro
  group_by(state, metro) %>%
  summarize(total_pop = sum(population)) %>%
  # Extract the most populated row for each state
  slice_max(total_pop, n = 1) %>%
  # Count the states with more people in Metro or Nonmetro areas
  ungroup()

## `summarise()` has grouped output by 'state'. You can override using the
## `.groups` argument.

## # A tibble: 50 × 3
##    state       metro total_pop
##    <chr>       <chr>     <dbl>
##  1 Alabama     Metro   3671377
##  2 Alaska      Metro    494990
##  3 Arizona     Metro   6295145
##  4 Arkansas    Metro   1806867
##  5 California  Metro  37587429
##  6 Colorado    Metro   4590896
##  7 Connecticut Metro   3406918
##  8 Delaware    Metro    926454
##  9 Florida     Metro  18941821
## 10 Georgia     Metro   8233886
## # … with 40 more rows
…
